Getting the data from the Luxembourguish elections out of Excel – Econometrics and Free Software
…
Now, let’s split the data we imported into a list, where each element of the list is a dataframe with the data from one circonscription:

list_data_districts <- map(districts, ~filter(.data = elections_district_raw_2018, sheet == .)) 

Now I can easily map the function I defined above, extract_party to this list of datasets. Well, I say easily, but it’s a bit more complicated than before because I have now a list of datasets and a list of target rows:

elections_district_2018 <- map2(.x = list_data_districts, .y = list_targets,
     ~map_df(position_parties_national, extract_party, dataset = .x, target_rows = .y))

The way to understand this is that for each element of list_data_districts and list_targets, I have to map extract_party to each element of position_parties_national. This gives the intented result:

elections_district_2018

## [[1]]
## # A tibble: 208 x 4
##    Party    Year Variables               Values
##    <chr>   <dbl> <chr>                    <dbl>
##  1 PIRATEN  2018 Pourcentage             0.0514
##  2 PIRATEN  2018 CLEMENT Sven (1)     8007     
##  3 PIRATEN  2018 WEYER Jerry (2)      3446     
##  4 PIRATEN  2018 CLEMENT Pascal (3)   3418     
##  5 PIRATEN  2018 KUNAKOVA Lucie (4)   2860     
##  6 PIRATEN  2018 WAMPACH Jo (14)      2693     
##  7 PIRATEN  2018 LAUX Cynthia (6)     2622     
##  8 PIRATEN  2018 ISEKIN Christian (5) 2610     
##  9 PIRATEN  2018 SCHWEICH Georges (9) 2602     
## 10 PIRATEN  2018 LIESCH Mireille (8)  2551     
## # … with 198 more rows
## 
## [[2]]
## # A tibble: 112 x 4
##    Party    Year Variables                             Values
##    <chr>   <dbl> <chr>                                  <dbl>
##  1 PIRATEN  2018 Pourcentage                           0.0767
##  2 PIRATEN  2018 COLOMBERA Jean (2)                 5074     
##  3 PIRATEN  2018 ALLARD Ben (1)                     4225     
##  4 PIRATEN  2018 MAAR Andy (3)                      2764     
##  5 PIRATEN  2018 GINTER Joshua (8)                  2536     
##  6 PIRATEN  2018 DASBACH Angelika (4)               2473     
##  7 PIRATEN  2018 GRÜNEISEN Sam (6)                  2408     
##  8 PIRATEN  2018 BAUMANN Roy (5)                    2387     
##  9 PIRATEN  2018 CONRAD Pierre (7)                  2280     
## 10 PIRATEN  2018 TRAUT ép. MOLITOR Angela Maria (9) 2274     
## # … with 102 more rows
## 
## [[3]]
## # A tibble: 224 x 4
##    Party    Year Variables                    Values
##    <chr>   <dbl> <chr>                         <dbl>
##  1 PIRATEN  2018 Pourcentage                  0.0699
##  2 PIRATEN  2018 GOERGEN Marc (1)          9818     
##  3 PIRATEN  2018 FLOR Starsky (2)          6737     
##  4 PIRATEN  2018 KOHL Martine (3)          6071     
##  5 PIRATEN  2018 LIESCH Camille (4)        6025     
##  6 PIRATEN  2018 KOHL Sylvie (6)           5628     
##  7 PIRATEN  2018 WELTER Christian (5)      5619     
##  8 PIRATEN  2018 DA GRAÇA DIAS Yanick (10) 5307     
##  9 PIRATEN  2018 WEBER Jules (7)           5301     
## 10 PIRATEN  2018 CHMELIK Libor (8)         5247     
## # … with 214 more rows
## 
## [[4]]
## # A tibble: 96 x 4
##    Party    Year Variables                           Values
##    <chr>   <dbl> <chr>                                <dbl>
##  1 PIRATEN  2018 Pourcentage                         0.0698
##  2 PIRATEN  2018 FRÈRES Daniel (1)                4152     
##  3 PIRATEN  2018 CLEMENT Jill (7)                 1943     
##  4 PIRATEN  2018 HOUDREMONT Claire (2)            1844     
##  5 PIRATEN  2018 BÖRGER Nancy (3)                 1739     
##  6 PIRATEN  2018 MARTINS DOS SANTOS Catarina (6)  1710     
##  7 PIRATEN  2018 BELLEVILLE Tatjana (4)           1687     
##  8 PIRATEN  2018 CONTRERAS Gerald (5)             1687     
##  9 PIRATEN  2018 Suffrages total                 14762     
## 10 PIRATEN  2018 Suffrages de liste              10248     
## # … with 86 more rows
…
