Forecasting my weight with R – Econometrics and Free Software
…
models is a tibble with a column called model, where each element is a model of type ARIMA.

Adding forecasts is based on the same trick as above, and we use the forecast() function:

forecasts <- models %>% 
    mutate(predictions = map(model, forecast, h = 24)) %>% 
    mutate(predictions = map(predictions, as_tibble)) %>% 
    pull(predictions) 

I forecast 24 days (I am writing this on the 24th of June), and convert the predictions to tibbles, and then pull only the predictions tibble:

forecasts

## [[1]]
## # A tibble: 24 x 5
##    `Point Forecast` `Lo 80` `Hi 80` `Lo 95` `Hi 95`
##  *            <dbl>   <dbl>   <dbl>   <dbl>   <dbl>
##  1             71.5    70.7    72.3    70.2    72.8
##  2             71.5    70.7    72.4    70.3    72.8
##  3             71.5    70.6    72.3    70.1    72.8
##  4             71.5    70.6    72.4    70.1    72.9
##  5             71.4    70.5    72.4    70.0    72.9
##  6             71.5    70.5    72.4    70.0    72.9
##  7             71.4    70.5    72.4    69.9    72.9
##  8             71.4    70.4    72.4    69.9    72.9
##  9             71.4    70.4    72.4    69.9    72.9
## 10             71.4    70.4    72.4    69.8    73.0
## # ... with 14 more rows
## 
## [[2]]
## # A tibble: 24 x 5
##    `Point Forecast` `Lo 80` `Hi 80` `Lo 95` `Hi 95`
##  *            <dbl>   <dbl>   <dbl>   <dbl>   <dbl>
##  1             71.6    70.8    72.3    70.3    72.8
##  2             71.6    70.8    72.5    70.3    72.9
##  3             71.5    70.6    72.4    70.2    72.9
##  4             71.5    70.6    72.5    70.1    72.9
##  5             71.5    70.5    72.5    70.0    73.0
##  6             71.5    70.5    72.5    70.0    73.0
##  7             71.5    70.5    72.5    69.9    73.0
##  8             71.5    70.4    72.5    69.9    73.1
##  9             71.5    70.4    72.5    69.8    73.1
## 10             71.4    70.3    72.6    69.7    73.1
## # ... with 14 more rows
## 
## [[3]]
## # A tibble: 24 x 5
##    `Point Forecast` `Lo 80` `Hi 80` `Lo 95` `Hi 95`
##  *            <dbl>   <dbl>   <dbl>   <dbl>   <dbl>
##  1             71.6    70.8    72.4    70.4    72.8
##  2             71.5    70.7    72.4    70.2    72.8
##  3             71.5    70.6    72.4    70.2    72.9
##  4             71.5    70.6    72.4    70.1    72.9
##  5             71.5    70.5    72.4    70.0    72.9
##  6             71.5    70.5    72.4    70.0    73.0
##  7             71.5    70.5    72.5    69.9    73.0
##  8             71.4    70.4    72.5    69.9    73.0
##  9             71.4    70.4    72.5    69.8    73.0
## 10             71.4    70.4    72.5    69.8    73.1
## # ... with 14 more rows
## 
## [[4]]
## # A tibble: 24 x 5
##    `Point Forecast` `Lo 80` `Hi 80` `Lo 95` `Hi 95`
##  *            <dbl>   <dbl>   <dbl>   <dbl>   <dbl>
##  1             71.5    70.8    72.3    70.3    72.8
##  2             71.5    70.7    72.4    70.3    72.8
##  3             71.5    70.7    72.4    70.2    72.8
##  4             71.5    70.6    72.4    70.1    72.9
##  5             71.5    70.6    72.4    70.1    72.9
##  6             71.5    70.5    72.5    70.0    73.0
##  7             71.5    70.5    72.5    69.9    73.0
##  8             71.5    70.4    72.5    69.9    73.0
##  9             71.4    70.4    72.5    69.8    73.1
## 10             71.4    70.3    72.5    69.8    73.1
## # ... with 14 more rows
## 
## [[5]]
## # A tibble: 24 x 5
##    `Point Forecast` `Lo 80` `Hi 80` `Lo 95` `Hi 95`
##  *            <dbl>   <dbl>   <dbl>   <dbl>   <dbl>
##  1             71.5    70.8    72.3    70.3    72.8
##  2             71.5    70.7    72.4    70.3    72.8
##  3             71.5    70.7    72.4    70.2    72.8
##  4             71.5    70.6    72.4    70.1    72.9
##  5             71.5    70.6    72.4    70.1    72.9
##  6             71.5    70.5    72.4    70.0    73.0
##  7             71.5    70.5    72.5    69.9    73.0
##  8             71.5    70.4    72.5    69.9    73.0
##  9             71.4    70.4    72.5    69.8    73.1
## 10             71.4    70.3    72.5    69.8    73.1
## # ... with 14 more rows

So forecasts is a list of tibble, each containing a forecast. Remember that I have 5 tibbles, because I imputed the data 5 times. I will merge this list of data sets together into one, but before I need to add a column that indices the forecasts:

forecasts <- map2(.x = forecasts, .y = as.character(seq(1, 5)), 
     ~mutate(.x, id = .y)) %>% 
    bind_rows() %>% 
    select(-c(`Lo 80`, `Hi 80`))

colnames(forecasts) <- c("point_forecast", "low_95", "hi_95", "id")

Let’s take a look again at forecasts:

forecasts

## # A tibble: 120 x 4
##    point_forecast low_95 hi_95 id   
##             <dbl>  <dbl> <dbl> <chr>
##  1           71.5   70.2  72.8 1    
##  2           71.5   70.3  72.8 1    
##  3           71.5   70.1  72.8 1    
##  4           71.5   70.1  72.9 1    
##  5           71.4   70.0  72.9 1    
##  6           71.5   70.0  72.9 1    
##  7           71.4   69.9  72.9 1    
##  8           71.4   69.9  72.9 1    
##  9           71.4   69.9  72.9 1    
## 10           71.4   69.8  73.0 1    
## # ... with 110 more rows

I now select the true values for the month of June. I also imputed this data, but here I will simply keep the average of the imputations:

weight_june <- imp_weight %>% 
    filter(Date >= "2018-06-01") %>% 
    select(-.id) %>% 
    group_by(Date) %>% 
    summarise(true_weight = mean(Poids)) %>% 
    rename(date = Date)

Let’s take a look at weight_june:

weight_june

## # A tibble: 24 x 2
##    date       true_weight
##    <date>           <dbl>
##  1 2018-06-01        71.8
##  2 2018-06-02        70.8
##  3 2018-06-03        71.2
##  4 2018-06-04        71.4
##  5 2018-06-05        70.9
##  6 2018-06-06        70.8
##  7 2018-06-07        70.5
##  8 2018-06-08        70.1
##  9 2018-06-09        70.3
## 10 2018-06-10        71.0
## # ... with 14 more rows
…
a <- 3

`<-`(a, 3)

These two formulations are equivalent. So these lines fill the empty element of the list of NULLs with the data frame weight_june. Then I add the id column and then bind the rows together: bind_rows().

Let’s bind the columns of weight_june and forecasts and take a look at it:

forecasts <- bind_cols(weight_june, forecasts) %>% 
    select(-id1)

forecasts

## # A tibble: 120 x 6
##    date       true_weight id    point_forecast low_95 hi_95
##    <date>           <dbl> <chr>          <dbl>  <dbl> <dbl>
##  1 2018-06-01        71.8 1               71.5   70.2  72.8
##  2 2018-06-02        70.8 1               71.5   70.3  72.8
##  3 2018-06-03        71.2 1               71.5   70.1  72.8
##  4 2018-06-04        71.4 1               71.5   70.1  72.9
##  5 2018-06-05        70.9 1               71.4   70.0  72.9
##  6 2018-06-06        70.8 1               71.5   70.0  72.9
##  7 2018-06-07        70.5 1               71.4   69.9  72.9
##  8 2018-06-08        70.1 1               71.4   69.9  72.9
##  9 2018-06-09        70.3 1               71.4   69.9  72.9
## 10 2018-06-10        71.0 1               71.4   69.8  73.0
## # ... with 110 more rows
…
