Manipulating strings with the {stringr} package – Econometrics and Free Software
…
We are almost done, but some cleaning is still necessary:

Exctracting or removing strings

Now, because I now the ALTO spec, I know how to find words that are split between two sentences:

winchester_content %>% 
  filter(str_detect(content, "hyppart"))

## # A tibble: 64 x 1
##    content                                                               
##    <chr>                                                                 
##  1 "\"aver\" subs_type=\"hyppart1\" subs_content=\"average\" "           
##  2 "\"age\" subs_type=\"hyppart2\" subs_content=\"average\" "            
##  3 "\"considera\" subs_type=\"hyppart1\" subs_content=\"consideration\" "
##  4 "\"tion\" subs_type=\"hyppart2\" subs_content=\"consideration\" "     
##  5 "\"re\" subs_type=\"hyppart1\" subs_content=\"resigned\" "            
##  6 "\"signed\" subs_type=\"hyppart2\" subs_content=\"resigned\" "        
##  7 "\"install\" subs_type=\"hyppart1\" subs_content=\"installed\" "      
##  8 "\"ed\" subs_type=\"hyppart2\" subs_content=\"installed\" "           
##  9 "\"be\" subs_type=\"hyppart1\" subs_content=\"before\" "              
## 10 "\"fore\" subs_type=\"hyppart2\" subs_content=\"before\" "            
## # … with 54 more rows

For instance, the word “average” was split over two lines, the first part of the word, “aver” on the first line, and the second part of the word, “age”, on the second line. We want to keep what comes after “subs_content”. Let’s extract the word “average” using str_extract(). However, because only some words were split between two lines, we first need to detect where the string “hyppart1” is located, and only then can we extract what comes after “subs_content”. Thus, we need to combine str_detect() to first detect the string, and then str_extract() to extract what comes after “subs_content”:

winchester_content <- winchester_content %>% 
  mutate(content = if_else(str_detect(content, "hyppart1"), 
                           str_extract_all(content, "content=.*", simplify = TRUE), 
                           content))

Let’s take a look at the result:

winchester_content %>% 
  filter(str_detect(content, "content"))

## # A tibble: 64 x 1
##    content                                                          
##    <chr>                                                            
##  1 "content=\"average\" "                                           
##  2 "\"age\" subs_type=\"hyppart2\" subs_content=\"average\" "       
##  3 "content=\"consideration\" "                                     
##  4 "\"tion\" subs_type=\"hyppart2\" subs_content=\"consideration\" "
##  5 "content=\"resigned\" "                                          
##  6 "\"signed\" subs_type=\"hyppart2\" subs_content=\"resigned\" "   
##  7 "content=\"installed\" "                                         
##  8 "\"ed\" subs_type=\"hyppart2\" subs_content=\"installed\" "      
##  9 "content=\"before\" "                                            
## 10 "\"fore\" subs_type=\"hyppart2\" subs_content=\"before\" "       
## # … with 54 more rows
…
