Graphical User Interfaces were a mistake but you can still make things right – Econometrics and Free Software
…
That whole Excel workbook is inside a neat data frame. Imagine that you want to quickly know where all the formulas are:

dutch_quigley_9378 %>%
  filter(!is.na(formula)) %>%
  count(sheet, address)

## Warning: `...` is not empty.
## 
## We detected these problematic arguments:
## * `needs_dots`
## 
## These dots only exist to allow future extensions and should be empty.
## Did you misspecify an argument?

## # A tibble: 18,776 x 3
##    sheet address     n
##    <chr> <chr>   <int>
##  1 Front B22         1
##  2 Front C13         1
##  3 Front C2          1
##  4 Front C22         1
##  5 Front C25         1
##  6 Front C26         1
##  7 Front C27         1
##  8 Front C28         1
##  9 Front C30         1
## 10 Front C31         1
## # … with 18,766 more rows
…
Now imagine that you’d like to know what these formulas are, let’s say, for the Swap sheet:

dutch_quigley_9378 %>%
  filter(sheet == "Swap", !is.na(formula)) %>%
  select(address, formula)

## Warning: `...` is not empty.
## 
## We detected these problematic arguments:
## * `needs_dots`
## 
## These dots only exist to allow future extensions and should be empty.
## Did you misspecify an argument?

## # A tibble: 6,773 x 2
##    address formula           
##    <chr>   <chr>             
##  1 F1      DAY(EOMONTH(G1,0))
##  2 G1      A11               
##  3 E2      BE9               
##  4 A3      BQ5               
##  5 E3      BF9               
##  6 F3      SUM(G3:K3)        
##  7 H3      $F$1*H2           
##  8 I3      $F$1*I2           
##  9 J3      $F$1*J2           
## 10 K3      $F$1*K2           
## # … with 6,763 more rows
…
dutch_quigley_9378 %>%
  filter(sheet == "Swap", !is.na(formula)) %>%
  filter(grepl("SUM", formula)) %>%
  select(address, formula)

## Warning: `...` is not empty.
## 
## We detected these problematic arguments:
## * `needs_dots`
## 
## These dots only exist to allow future extensions and should be empty.
## Did you misspecify an argument?

## # A tibble: 31 x 2
##    address formula        
##    <chr>   <chr>          
##  1 F3      SUM(G3:K3)     
##  2 E4      SUM(D11:D309)  
##  3 F5      SUM(G5:K5)     
##  4 E6      SUM(F6:H6)     
##  5 BF8     SUM(BF11:BF242)
##  6 B9      SUM(B47:B294)  
##  7 AB9     SUM(AB11:AB253)
##  8 AC9     SUM(AC11:AC253)
##  9 AD9     SUM(AD11:AD253)
## 10 AE9     SUM(AE11:AE253)
## # … with 21 more rows
…
