Dealing with non-representative samples with post-stratification – Econometrics and Free Software
…
Let’s go back to stats 101: what do you do if you want to know how many people like to play bingo in a certain population? The answer, of course, is to ask a sample of people if they enjoy playing bingo, compute the proportion and then… we’re done! Right? Well not exactly. This works if your sample is representative, which in practice, is not often the case. I am not an expert of survey methods, very far from it, but I was recently confronted to a similar issue at work. So in this blog post I want to talk about estimating a proportion using a sample that is not representative of the population using a method called “post-stratification”.

By the way, before continuing, I also made a video about this topic if you’re interested, watch it here.

The data I use in this blog post is simulated; so I know the “truth”, since I made the data, and can thus compare the results from post-stratification to the truth. At the end of the blog post, I will post the complete source code, but for now, let’s suppose that this is my sample:

library(tidyverse)
library(survey)
library(janitor)
library(brotools)

my_sample_1

## # A tibble: 904 x 2
##    age_group likes_bingo_1
##    <chr>             <dbl>
##  1 20-49                 0
##  2 20-49                 0
##  3 20-49                 0
##  4 20-49                 0
##  5 20-49                 0
##  6 20-49                 0
##  7 20-49                 0
##  8 20-49                 0
##  9 20-49                 0
## 10 20-49                 1
## # … with 894 more rows
…
eusilcP %>%
  summarise(mean(likes_bingo_1))

##   mean(likes_bingo_1)
## 1           0.1830225

And we’re quite close!

Now let’s continue a little bit, with a more complicated example. Imagine that I collected five samples, one per week. Each sample contains totally different people (no person gets asked twice). Also, imagine that while I’m collecting my samples and analyzing them, bingo fever is running amok in my country, always infecting more and more people. As time passes, the proportion of people who love bingo keeps increasing. So my population’s parameter keeps changing, and each week, when I get a new sample, the proportion in my sample will also grow on a weekly basis. Because of this, I have to compute weights each week. Thankfully, the distribution of age groups in my population can be assumed to stay constant, so I don’t need to think about that.

Let’s take a look at my sample which contains 5 weeks of data:

samples

## # A tibble: 31,590 x 3
##    age_group week            yes
##    <chr>     <chr>         <dbl>
##  1 20-49     likes_bingo_1     0
##  2 20-49     likes_bingo_2     0
##  3 20-49     likes_bingo_3     0
##  4 20-49     likes_bingo_4     0
##  5 20-49     likes_bingo_5     0
##  6 20-49     likes_bingo_1     0
##  7 20-49     likes_bingo_2     0
##  8 20-49     likes_bingo_3     0
##  9 20-49     likes_bingo_4     0
## 10 20-49     likes_bingo_5     1
## # … with 31,580 more rows
…
