Automating checks of handcrafted Word tables with {docxtractr} – Econometrics and Free Software
…
We do see a bunch of FALSE statements, so we need to check those! This is where some typos where found.

Let’s now deal with table 1. The way we will handle this one will be very similar to the one before. It’s just that we have subtotals to deal with as well.

table_1

## # A tibble: 32 × 8
##    by_department   fte        persons na    na_2  na_3  na_4  na_5 
##    <chr>           <chr>      <chr>   <chr> <chr> <chr> <chr> <chr>
##  1 ""              M          F       Total M     F     Total <NA> 
##  2 "Dep A"         Workers    12,30   33,40 55,70 13    36    59   
##  3 ""              Managers   3,80    19,90 15,70 4     19    19   
##  4 ""              Assistants 0,00    0,00  0,00  0     0     0    
##  5 ""              Directors  0,20    0,00  0,20  1     0     1    
##  6 "Total – Dep A" 26,30      45,30   71,60 28,00 51,00 79,00 <NA> 
##  7 "Dep B"         Workers    31,80   39,60 71,40 32    41    73   
##  8 ""              Managers   3,00    13,50 16,50 3     15    18   
##  9 ""              Assistants 0,00    0,00  0,00  0     0     0    
## 10 ""              Directors  0,20    0,20  0,40  1     1     2    
## # … with 22 more rows
…
